{"creators": [
	{
		"id": "98d91cd6-672c-4b22-adac-e2c126e2c121",
		"name": "René Schmitz",
		"links": [{"type": "website", "url": "https://www.schmitzbits.de"}]
	},
	{
		"id": "fe3f0d5b-4fd9-4dc9-8004-2f5a810f818b",
		"brand": "Kassutronics",
		"links": [
			{"type": "website", "url": "https://kassu2000.blogspot.com"},
			{"type": "store", "url": "https://store.kassutronics.net/"},
			{"type": "git", "url": "https://github.com/kassu"}
		]
	},
	{
		"id": "4e98596e-33e9-44b8-b3d3-c6f521fa4432",
		"name": "Sandelinos",
		"links": [{"type": "website", "url": "https://sandelinos.me"}]
	},
	{
		"id": "5d57659f-495d-46c0-84eb-e3d368efa54d",
		"name": "Juanito Moore",
		"brand": "Modular for the Masses",
		"links": [
			{"type": "video", "url": "https://www.youtube.com/@ozerik"},
			{"type": "website", "url": "https://modularforthemasses.blogspot.com/"},
			{"type": "store", "url": "https://modularforthemasses.square.site/"},
			{"type": "git", "url": "https://github.com/ozerik/"}
		]
	},
	{
		"id": "6b3b6184-906a-47bb-be8d-d879edce3587",
		"brand": "Erica Synths",
		"links": [{"type": "website", "url": "https://www.ericasynths.lv/"}]
	},
	{
		"id": "238e683f-84b6-4478-bd5f-5aa309418957",
		"name": "Moritz Klein",
		"links": [
			{"type": "video", "url": "https://www.youtube.com/channel/UCzfW6SlNEyxmAPtdr3n-_Og"},
			{"type": "support", "url": "https://www.patreon.com/moritzklein"}
		]
	}
],
"modules": [
	{
		"id": "a4ed1762-2b20-4e95-a0e8-e147290176a9",
		"name": "Korg late MS20 filter",
		"creators": ["98d91cd6-672c-4b22-adac-e2c126e2c121"],
		"url": "https://www.schmitzbits.de/ms20.html",
		"resources": [{"type": "schematic"}]
	},
	{
		"id": "52bee3a4-060c-47c9-9a6b-1fc7b21d11a8",
		"name": "KS-20 Filter",
		"creators": ["fe3f0d5b-4fd9-4dc9-8004-2f5a810f818b"],
		"parents": ["98d91cd6-672c-4b22-adac-e2c126e2c121"],
		"url": "https://kassu2000.blogspot.com/2019/07/ks-20-filter.html",
		"resources": [
			{
				"type": "schematic",
				"url": "https://github.com/kassu/kassutronics/tree/master/documentation/KS-20%20VCF"
			},
			{
				"type": "panel-template",
				"format": "eurorack",
				"url": "https://github.com/kassu/kassutronics/tree/master/documentation/KS-20%20VCF"
			}
		]
	},
	{
		"id": "fec54511-7aef-4888-994f-f75753d9c7cb",
		"name": "Quantizer",
		"creators": ["fe3f0d5b-4fd9-4dc9-8004-2f5a810f818b"],
		"url": "https://kassu2000.blogspot.com/2019/10/quantizer.html",
		"resources": [
			{
				"type": "schematic",
				"url": "https://github.com/kassu/kassutronics/tree/master/documentation/Quantizer"
			},
			{
				"type": "panel-template",
				"url": "https://github.com/kassu/kassutronics/tree/master/documentation/Quantizer"
			},
			{
				"type": "code",
				"url": "https://github.com/kassu/KassutronicsQuantizer"
			}
		]
	},
	{
		"id": "5032a232-db30-491f-a455-7355a4b8b1a9",
		"name": "My stripboard KS-20 filter clone",
		"creators": ["4e98596e-33e9-44b8-b3d3-c6f521fa4432"],
		"parents": ["52bee3a4-060c-47c9-9a6b-1fc7b21d11a8"],
		"url": "https://sandelinos.me/diy/ks-20-filter/",
		"resources": [
			{"type": "stripboard-layout"},
			{"type": "panel-template", "format": "eurorack"}
		]
	},
	{
		"id": "aaaf92ba-027d-4546-84b3-a3171162225e",
		"name": "MS-20 VCF",
		"creators": ["5d57659f-495d-46c0-84eb-e3d368efa54d"],
		"parents": ["98d91cd6-672c-4b22-adac-e2c126e2c121"],
		"url": "https://www.youtube.com/watch?v=uq3TvPBio_g",
		"resources": [
			{"type": "build-video"},
			{"type": "schematic", "url": "https://drive.google.com/open?id=1PnwspQndJK8oI6rkUyz9AkvxLnCkyd6k"}
		]
	},
	{
		"id": "f2303076-ab0b-4a03-9bb0-360f1d693afb",
		"name": "EDU DIY Kick Drum",
		"creators": [
			"238e683f-84b6-4478-bd5f-5aa309418957",
			"6b3b6184-906a-47bb-be8d-d879edce3587"
		],
		"url": "https://www.ericasynths.lv/shop/diy-kits-1/edu-diy-kick-drum/",
		"resources": [
			{"type": "schematic", "url": "https://www.ericasynths.lv/media/KICKDRUM_MANUAL_5wVQsEK.pdf"}
		]
	}
]
}
